Title,Content,Preview Image,Product Link,Images
3M 2080 Wrap Film Series G10 Gloss White,"\nWhite color has been associated with luxury and quality for years, but this white glossy car wrap has many other advantages. The latest that we will present to you is the additional protective layer (completely transparent) in all glossy colors, which protects the surface from scratches during application.\n",https://partners-ltd.com/wp-content/uploads/2020/12/3M-2080-G10_gloss-white-200x200.jpg,https://partners-ltd.com/en/shop/3m-car-wrap-films/colors/3m-2080-wrap-film-series-g10-gloss-white/,"['https://partners-ltd.com/wp-content/uploads/2020/12/3M-2080-G10_gloss-white-200x200.jpg', 'https://partners-ltd.com/wp-content/uploads/2020/12/3M-2080-Wrap-Film-Series-G10-бял-гланц-3-200x200.jpg', 'https://partners-ltd.com/wp-content/uploads/2020/12/3M-2080-Wrap-Film-Series-G10-бял-гланц-2-200x200.jpg', 'https://partners-ltd.com/wp-content/uploads/2020/12/3M-2080-Wrap-Film-Series-G10-бял-гланц-1-200x200.jpg']"
3M 2080 Car Wrap Series G53 Gloss Flame Red,"\nBold and impressive, this red color would suit absolutely any car. 3M 2080 Car Wrap Series gives you a great opportunity to stand out from the rest. Give yourself luxury and quality.\n",https://partners-ltd.com/wp-content/uploads/2020/11/3M-2080-G53-200x200.jpg,https://partners-ltd.com/en/shop/3m-car-wrap-films/colors/3m-2080-car-wrap-series-g53-gloss-flame-red/,"['https://partners-ltd.com/wp-content/uploads/2020/11/3M-2080-G53-200x200.jpg', 'https://partners-ltd.com/wp-content/uploads/2020/11/3M-2080-Car-Wrap-Series-G53-червен-цвят-гланц-200x200.jpg', 'https://partners-ltd.com/wp-content/uploads/2020/11/3M-2080-Car-Wrap-Series-G53-червен-гланц-200x200.jpg']"
3M 2080 Car Wrap Series G13 Gloss Hot Rod Red,\nImpressively saturated and pigmented color. The 3M 2080 Car Wrap Hot Rod Red will breathe new life into your car. Do not delay to\xc2\xa0fulfill your wildest tuning dreams.\n,https://partners-ltd.com/wp-content/uploads/2020/11/3M-2080-G13-200x200.jpg,https://partners-ltd.com/en/shop/3m-car-wrap-films/colors/3m-2080-car-wrap-series-g13-gloss-hot-rod-red/,"['https://partners-ltd.com/wp-content/uploads/2020/11/3M-2080-G13-200x200.jpg', 'https://partners-ltd.com/wp-content/uploads/2020/11/3M-2080-Car-Wrap-Series-G13--200x200.jpg', 'https://partners-ltd.com/wp-content/uploads/2020/11/3M-2080-Car-Wrap-Series-G13-огнено-червено-гланц--200x200.jpg', 'https://partners-ltd.com/wp-content/uploads/2020/11/3M-2080-Car-Wrap-Series-G13-червен-гланц--200x200.jpg']"
3M 2080 Car Wrap Series G83 Gloss Dark Red,"\nFor bold color lovers, the 3M 2080 Car Wrap Series offers this dark red, which will give you back the pleasure of driving. You have the amazing opportunity to turn your car into art!\n",https://partners-ltd.com/wp-content/uploads/2020/11/3M-2080-G83-200x200.jpg,https://partners-ltd.com/en/shop/3m-car-wrap-films/colors/3m-2080-car-wrap-series-g83-gloss-dark-red/,"['https://partners-ltd.com/wp-content/uploads/2020/11/3M-2080-G83-200x200.jpg', 'https://partners-ltd.com/wp-content/uploads/2020/11/3M-2080-Car-Wrap-Series-G83-тъмно-червено-2-200x200.jpg', 'https://partners-ltd.com/wp-content/uploads/2020/11/3M-2080-Car-Wrap-Series-G83-тъмно-червено-3-200x200.jpg', 'https://partners-ltd.com/wp-content/uploads/2020/11/3M-2080-Car-Wrap-Series-G83-тъмно-червено-1-200x200.jpg']"
3M 2080 Wrap Film Series G54 Bright Orange,\nBright orange color that will make you stand out from the rest on the road. The 3M Car Wrap 2080 series colors are clean and pigmented. Uncompromising quality is recognized from afar. Let classy vision become your business card.\n,https://partners-ltd.com/wp-content/uploads/2020/11/3M-2080-Wrap-Film-Series-G54-Наситено-оранжево-гланц-200x200.jpg,https://partners-ltd.com/en/shop/3m-car-wrap-films/colors/3m-2080-wrap-film-series-g54-bright-orange/,"['https://partners-ltd.com/wp-content/uploads/2020/11/3M-2080-Wrap-Film-Series-G54-Наситено-оранжево-гланц-200x200.jpg', 'https://partners-ltd.com/wp-content/uploads/2020/11/3M-2080-Car-Wrap-Series-G54-Gloss-Bright-Orange-Gallery-200x200.png', 'https://partners-ltd.com/wp-content/uploads/2020/11/3M-2080-Car-Wrap-Series-G54-Gloss-Bright-Orange-Gallery-1-200x200.png', 'https://partners-ltd.com/wp-content/uploads/2020/11/3M-2080-Car-Wrap-Series-G54-Gloss-Bright-Orange_Gallery-200x200.png']"
3M 2080 Wrap Film Series GP282 Gloss Ember Black,\nFine shine and <strong>elegant effect</strong>. Give your car a <strong>brand new look</strong> that will bring you pleasure and satisfaction every time you sit in your automobile.\n,https://partners-ltd.com/wp-content/uploads/2020/11/3M-2080-GP282--200x200.jpg,https://partners-ltd.com/en/shop/3m-car-wrap-films/colors/3m-2080-wrap-film-series-gp282-ember-black/,"['https://partners-ltd.com/wp-content/uploads/2020/11/3M-2080-GP282--200x200.jpg', 'https://partners-ltd.com/wp-content/uploads/2020/11/3M-2080-Wrap-Film-Series-GP282-Gloss-–-1-200x200.jpg', 'https://partners-ltd.com/wp-content/uploads/2020/11/3M-2080-Wrap-Film-Series-GP282-Gloss-–-блестящ-черен-цвят-гланц-1-200x200.jpg', 'https://partners-ltd.com/wp-content/uploads/2020/11/3M-2080-Wrap-Film-Series-GP282-Gloss-–-блестящ-черен-цвят-200x200.jpg']"
3M 2080 Wrap Film Series GP240 Gloss - White Gold Sparkle,"\nElegant and fine, it brings a sense of luxury and quality. <strong>3M 2080 Car Wrap</strong> has a lot of advantages, one of them is the additional completely transparent <strong>protective layer</strong>, in all glossy colors. It protects the surface from <strong>scratches</strong> during application.\n",https://partners-ltd.com/wp-content/uploads/2020/11/3M-2080-Car-Wrap-Series-GP240-Gloss-White-Gold-Sparkle-200x200.jpg,https://partners-ltd.com/en/shop/3m-car-wrap-films/colors/3m-2080-wrap-film-series-gp240-gloss-white-gold-sparkle/,"['https://partners-ltd.com/wp-content/uploads/2020/11/3M-2080-Car-Wrap-Series-GP240-Gloss-White-Gold-Sparkle-200x200.jpg', 'https://partners-ltd.com/wp-content/uploads/2020/11/3M-2080-Car-Wrap-Series-GP240-Gloss-White-Gold-Sparkle-Gallery-200x200.jpg', 'https://partners-ltd.com/wp-content/uploads/2020/11/3M-2080-Car-Wrap-Series-GP240-Gloss-White-Gold-Sparkle_-Gallery-200x200.jpg', 'https://partners-ltd.com/wp-content/uploads/2020/11/3M-2080-Car-Wrap-Series-GP240-Gloss-White-Gold-Sparkle--200x200.jpg']"
3M 2080 Wrap Film Series G79 Light Ivory,"\nRecently, nude shades are a trend. This is why, <strong>the American company 3M</strong> delighted fans of &#8220;nude&#8221; colors with this light ivory car wrap. Elegant and fine, it brings a sense of luxury and quality. <strong>3M 2080 Car Wrap</strong> has a lot of advantages, one of them is the additional completely transparent <strong>protective layer</strong>, in all glossy colors. It protects the surface from <strong>scratches</strong> during application.\n",https://partners-ltd.com/wp-content/uploads/2020/11/3M-2080-Car-Wrap-Series-G79-Gloss-Light-ivory-200x200.jpg,https://partners-ltd.com/en/shop/3m-car-wrap-films/colors/3m-2080-wrap-film-series-g79-light-ivory/,"['https://partners-ltd.com/wp-content/uploads/2020/11/3M-2080-Car-Wrap-Series-G79-Gloss-Light-ivory-200x200.jpg', 'https://partners-ltd.com/wp-content/uploads/2020/11/3M-2080-Car-Wrap-Series-G79-Gloss-Light-ivory_-Gallery-200x200.jpg', 'https://partners-ltd.com/wp-content/uploads/2020/11/3M-2080-Car-Wrap-Series-G79-Gloss-Light-ivory-G-200x200.jpg', 'https://partners-ltd.com/wp-content/uploads/2020/11/3M-2080-Car-Wrap-Series-G79-Gloss-Light-ivory-Gallery-200x200.png']"
3M 2080 Wrap Film Series G25 Gloss Sunflower,"\nBright, saturated, joyful, and full of life<strong> 3M 2080 Car Wrap Series</strong> in color <strong>Sunflower</strong> will be everything you need for standing out from the crowd. In addition to the great look,\xc2\xa0<strong>3M 2080 Car Wrap</strong> has loads of advantages. The latest that we will present to you is the additional protective layer (completely transparent) in all glossy colors, which <strong>protects</strong> the surface from <strong>scratches</strong> during application.\n",https://partners-ltd.com/wp-content/uploads/2020/11/3M-2080-Car-Wrap-Series-G25-Gloss-Sunflower-жълт-цвят-гланц-200x200.jpg,https://partners-ltd.com/en/shop/3m-car-wrap-films/colors/3m-2080-wrap-film-series-g25-gloss-sunflower/,"['https://partners-ltd.com/wp-content/uploads/2020/11/3M-2080-Car-Wrap-Series-G25-Gloss-Sunflower-жълт-цвят-гланц-200x200.jpg', 'https://partners-ltd.com/wp-content/uploads/2020/11/3M-2080-Car-Wrap-Series-G25-Gloss-Sunflower-жълт-цвят-200x200.png', 'https://partners-ltd.com/wp-content/uploads/2020/11/3M-2080-Car-Wrap-Series-G25-Gloss-Sunflower-жълт-цвят-Галерия-200x200.jpg', 'https://partners-ltd.com/wp-content/uploads/2020/11/3M-2080-Car-Wrap-Series-G25-Gloss-Sunflower-жълто-200x200.jpg']"
3M 2080 Wrap Film Series G103 Gloss Hot Pink,"\nA color that can be seen from afar. In addition to the hot look,\xc2\xa0<strong>3M 2080 Car Wrap</strong> has loads of advantages. The latest that we will present to you is the additional protective layer (completely transparent) in all glossy colors, which <strong>protects</strong> the surface from <strong>scratches</strong> during application.\n",https://partners-ltd.com/wp-content/uploads/2020/11/3M-2080-G103-200x200.jpg,https://partners-ltd.com/en/shop/3m-car-wrap-films/colors/3m-2080-wrap-film-series-g103-gloss-hot-pink/,"['https://partners-ltd.com/wp-content/uploads/2020/11/3M-2080-G103-200x200.jpg', 'https://partners-ltd.com/wp-content/uploads/2020/11/3M-2080-Wrap-Film-Series-G103-Hot-Pink-наситено-розово-гланц-200x200.jpg', 'https://partners-ltd.com/wp-content/uploads/2020/11/3M-2080-Wrap-Film-Series-G103-Hot-Pink-наситено-розово-200x200.jpg', 'https://partners-ltd.com/wp-content/uploads/2020/11/3M-2080-Wrap-Film-Series-G103-Hot-Pink-розово-гланц-200x200.png']"
3M 2080 Wrap Film Series G14 Gloss Burnt Orange,"\nHigh-quality and stylish vision &#8211; that&#8217;s what you get with the <strong>3M 2080 Car Wrap series</strong>. Saturated, bright colors, satisfying the eye. Impressive vision, arousing jealousy.\n",https://partners-ltd.com/wp-content/uploads/2020/11/3M-2080-G14-200x200.jpg,https://partners-ltd.com/en/shop/3m-car-wrap-films/colors/3m-2080-wrap-film-series-g14-gloss-burnt-orange/,"['https://partners-ltd.com/wp-content/uploads/2020/11/3M-2080-G14-200x200.jpg', 'https://partners-ltd.com/wp-content/uploads/2020/11/3M-2080-Wrap-Film-Series-G14-Burnt-orange-тъмно-оранжев-гланц-1-200x200.jpg', 'https://partners-ltd.com/wp-content/uploads/2020/11/3M-2080-Wrap-Film-Series-G14-Gloss-Burnt-orange-тъмно-оранжев-гланц-200x200.jpg', 'https://partners-ltd.com/wp-content/uploads/2020/11/3M-2080-Wrap-Film-Series-G14-Burnt-orange-тъмно-оранжев-200x200.jpg']"
3M 2080 Wrap Film Series G15 Gloss Bright Yellow,"\nIt&#8217;s no secret that the <strong>3M 2080 series</strong> offers tuning enthusiasts the most saturated and pure colors on the market. Bright and eye-catching, this is the<strong> 3M 2080 G15</strong>!\xc2\xa0It is certain that you will arouse interest and curiosity in others.\n",https://partners-ltd.com/wp-content/uploads/2020/11/3M-2080-G15-200x200.jpg,https://partners-ltd.com/en/shop/3m-car-wrap-films/colors/3m-2080-wrap-film-series-g15-gloss-bright-yellow/,"['https://partners-ltd.com/wp-content/uploads/2020/11/3M-2080-G15-200x200.jpg', 'https://partners-ltd.com/wp-content/uploads/2020/11/3M-2080-G15-Bright-Yellow-светло-жълто-200x200.jpg', 'https://partners-ltd.com/wp-content/uploads/2020/11/3M-2080-G15-Bright-Yellow-светло-жълто-галерия-200x200.jpg', 'https://partners-ltd.com/wp-content/uploads/2020/11/3M-2080-G15-Bright-Yellow-светло-жълто-детайл-200x200.jpg']"
3M Wrap Film Series 2080 G12 Gloss Black,"\nDual cast wrap film &#8211; Gloss black 3M 2080-G12 for full vehicle wrap which has a protective film layer to reduce surface impressions and scratches. Designed with Comply\xe2\x84\xa2 and Controltac \xe2\x84\xa2 v3 adhesive systems for fast, easy, and bubble-free installations on surfaces with complex 3D curves.<br />\n<strong>Prices and quantity discounts:</strong>\n",https://partners-ltd.com/wp-content/uploads/2019/11/3M-2080-G12_gloss_black_425x450-200x200.jpg,https://partners-ltd.com/en/shop/3m-car-wrap-films/colors/3m-2080-g12-gloss-black-film/,['https://partners-ltd.com/wp-content/uploads/2019/11/3M-2080-G12_gloss_black_425x450-200x200.jpg']
3M Car Wrap Film 1080 - Gloss colors,"\nHigh quality car wrap films, that guarantees high reliability of the installations even in the most unprotected parts of the vehicle, such as the front hood and the bumpers.\n",https://partners-ltd.com/wp-content/uploads/2018/08/3M_Car_Wrap_films_1080_gloss-200x200.jpg,https://partners-ltd.com/en/shop/3m-car-wrap-films/colors/3m-wrap-film-1080-gloss/,['https://partners-ltd.com/wp-content/uploads/2018/08/3M_Car_Wrap_films_1080_gloss-200x200.jpg']
3M Car Wrap Film 1080 - Gloss colors,"\nHigh quality car wrap films, that guarantees high reliability of the installations even in the most unprotected parts of the vehicle, such as the front hood and the bumpers.\n",https://partners-ltd.com/wp-content/uploads/2018/08/3M_Car_Wrap_films_1080_gloss-200x200.jpg,https://partners-ltd.com/en/shop/3m-car-wrap-films/colors/3m-wrap-film-1080-gloss/,['https://partners-ltd.com/wp-content/uploads/2018/08/3M_Car_Wrap_films_1080_gloss-200x200.jpg']
3M 2080 Car Wrap Series M13 Red Matte,"\nBright, saturated red color with an elegant matte effect. Be different, be yourself. Create the dream change in your car with the 3M 2080 Car Wrap Series. The rich palette has something extraordinary for everyone.\n",https://partners-ltd.com/wp-content/uploads/2020/11/3M-2080-M13-200x200.jpg,https://partners-ltd.com/en/shop/3m-car-wrap-films/matte-colors/3m-2080-car-wrap-series-m13-red-matte/,"['https://partners-ltd.com/wp-content/uploads/2020/11/3M-2080-M13-200x200.jpg', 'https://partners-ltd.com/wp-content/uploads/2020/11/3M-2080-Car-Wrap-Series-M13-червено-200x200.jpg', 'https://partners-ltd.com/wp-content/uploads/2020/11/3M-2080-Car-Wrap-Series-M13-червен-мат-200x200.jpg', 'https://partners-ltd.com/wp-content/uploads/2020/11/3M-2080-Car-Wrap-Series-M13-червен-мат-облепяне-200x200.jpg']"
3M 2080 Car Wrap Series M27 Matte Indigo,"\n3M 2080 Car Wrap indigo color magnetically overflows blue and purple shades. Car wrap, that won&#8217;t bore you, and will also inspire you every time you look at your car.\n",https://partners-ltd.com/wp-content/uploads/2020/11/3M-2080-M27-200x200.jpg,https://partners-ltd.com/en/shop/3m-car-wrap-films/matte-colors/3m-2080-car-wrap-series-m27-matte-indigo/,"['https://partners-ltd.com/wp-content/uploads/2020/11/3M-2080-M27-200x200.jpg', 'https://partners-ltd.com/wp-content/uploads/2020/11/3M-2080-Car-Wrap-Series-M27-индиго-мат-облепяне-200x200.jpg', 'https://partners-ltd.com/wp-content/uploads/2020/11/3M-2080-Car-Wrap-Series-M27-индиго-200x200.jpg', 'https://partners-ltd.com/wp-content/uploads/2020/11/3M-2080-Car-Wrap-Series-M27-индиго-мат-200x200.jpg']"
3M 2080 Car Wrap Series M26 Matte Military Green,"\nThis military green color will bring a mystery to your car. Completely matte, it is a pure satisfaction. The 3M 2080 Car Wrap Series will not disappoint you.\n",https://partners-ltd.com/wp-content/uploads/2020/11/3M-2080-M26-200x200.jpg,https://partners-ltd.com/en/shop/3m-car-wrap-films/matte-colors/3m-2080-car-wrap-series-m26-matte-military-green/,"['https://partners-ltd.com/wp-content/uploads/2020/11/3M-2080-M26-200x200.jpg', 'https://partners-ltd.com/wp-content/uploads/2020/11/3M-2080-Car-Wrap-Series-M26-зелен-мат-200x200.jpg', 'https://partners-ltd.com/wp-content/uploads/2020/11/3M-2080-Car-Wrap-Series-M26-тъмнозелен-мат-200x200.jpg', 'https://partners-ltd.com/wp-content/uploads/2020/11/3M-2080-Car-Wrap-Series-M26-тъмнозелен-мат-облепяне-200x200.jpg']"
3M 2080 Car Wrap Series M54 Matte Orange,\n3M 2080 Car Wrap Series brings to your attention this bright and warm color. The car wrap has an exquisite matte effect and is a drastic change that your car deserves.\n,https://partners-ltd.com/wp-content/uploads/2020/11/3M-2080-M54-200x200.jpg,https://partners-ltd.com/en/shop/3m-car-wrap-films/matte-colors/3m-2080-car-wrap-series-m54-matte-orange/,"['https://partners-ltd.com/wp-content/uploads/2020/11/3M-2080-M54-200x200.jpg', 'https://partners-ltd.com/wp-content/uploads/2020/11/3M-2080-Car-Wrap-Series-M54-оранжев-мат-200x200.jpg', 'https://partners-ltd.com/wp-content/uploads/2020/11/3M-2080-Car-Wrap-Series-M54-оранжев-цвят-мат-200x200.jpg', 'https://partners-ltd.com/wp-content/uploads/2020/11/3M-2080-Car-Wrap-Series-M54-оранжев-мат-1-200x200.jpg']"
3M 2080 Car Wrap Series M12 Matte Black,"\n3M 2080 Car Wrap in black matte color will change your ideas for both car wrap and matte effect. Stylish and different, this car wrap film would make any car stand out from the rest. Express yourself and attract everyone&#8217;s attention.\n",https://partners-ltd.com/wp-content/uploads/2020/11/3M-2080-M12-200x200.jpg,https://partners-ltd.com/en/shop/3m-car-wrap-films/matte-colors/3m-2080-car-wrap-series-m12-matte-black/,"['https://partners-ltd.com/wp-content/uploads/2020/11/3M-2080-M12-200x200.jpg', 'https://partners-ltd.com/wp-content/uploads/2020/11/3M-2080-Car-Wrap-Series-M12-Черен-мат-200x200.jpg', 'https://partners-ltd.com/wp-content/uploads/2020/11/3M-2080-Car-Wrap-Series-M12-Черен-мат.jpg-200x200.jpg', 'https://partners-ltd.com/wp-content/uploads/2020/11/3M-2080-Car-Wrap-Series-M12-Black-Matte-Черен-мат.jpg-200x200.jpg']"
3M 2080 Car Wrap Series M21 Silver Matte,"\nAnyone who claims that gray is boring has not seen the 3M 2080 Car Wrap M21 silver with a matte effect. Suitable for perfectionism lovers, classic, stylish, and impressive gray.\n",https://partners-ltd.com/wp-content/uploads/2020/11/3M-2080-Car-Wrap-Series-M21-сребърен-мат-2-200x200.jpg,https://partners-ltd.com/en/shop/3m-car-wrap-films/matte-colors/3m-2080-car-wrap-series-m21-silver-matte/,"['https://partners-ltd.com/wp-content/uploads/2020/11/3M-2080-Car-Wrap-Series-M21-сребърен-мат-2-200x200.jpg', 'https://partners-ltd.com/wp-content/uploads/2020/11/3M-2080-Car-Wrap-Series-M21-сребърен-мат-1-200x200.jpg', 'https://partners-ltd.com/wp-content/uploads/2020/11/3M-2080-Car-Wrap-Series-M21-сребърен-цвят-мат-200x200.jpg', 'https://partners-ltd.com/wp-content/uploads/2020/11/3M-2080-Car-Wrap-Series-M21-цвят-сребърен-мат-200x200.jpg']"
3M 2080 Car Wrap Series M10 Matte White,"\nFrom a long time ago, white color has been associated with luxury. When adding a matte effect, you get a combination that would make everyone stop and stare at you.\n",https://partners-ltd.com/wp-content/uploads/2020/11/3M-2080-Car-Wrap-Series-M10-Matte-White-бял-мат-200x200.jpg,https://partners-ltd.com/en/shop/3m-car-wrap-films/matte-colors/3m-2080-car-wrap-series-m10-matte-white/,"['https://partners-ltd.com/wp-content/uploads/2020/11/3M-2080-Car-Wrap-Series-M10-Matte-White-бял-мат-200x200.jpg', 'https://partners-ltd.com/wp-content/uploads/2020/11/3M-2080-Car-Wrap-Series-M10-Matte-White-бял-мат-1-200x200.jpg', 'https://partners-ltd.com/wp-content/uploads/2020/11/3M-2080-Car-Wrap-Series-M10-Matte-White-бял-цвят-мат-200x200.jpg', 'https://partners-ltd.com/wp-content/uploads/2020/11/3M-2080-Car-Wrap-Series-M10-Matte-White-мат-бял-200x200.jpg']"
3M Car Wrap Film 1080 - Matte film colors,"\nHigh quality cast vinyl films designed to wrap cars and other vehicles. Suitable for flat, simple curves and 3D compound curves. They guarantee high reliability of the installations even in the most unprotected parts of the vehicle, such as the front hood and bumpers.\n",https://partners-ltd.com/wp-content/uploads/2018/08/3M_Car_Wrap_films_1080_mate-200x200.jpg,https://partners-ltd.com/en/shop/3m-car-wrap-films/matte-colors/3m-wrap-film-1080-matte-colors/,['https://partners-ltd.com/wp-content/uploads/2018/08/3M_Car_Wrap_films_1080_mate-200x200.jpg']
"3M 2080 Wrap Film Series - GP292 Galaxy Black, gloss",\nThe cosmic reflections will make you feel like a real star. This color is suitable for classic black lovers but in a non-classic version. Black metallic will turn your car into art.\n<strong>Prices and quantity discounts:</strong>\n,https://partners-ltd.com/wp-content/uploads/2020/09/3M-2080-GP292-Gloss-Galaxy-Black-200x200.jpg,https://partners-ltd.com/en/shop/3m-car-wrap-films/metalic/3m-2080-wrap-film-series-gp292-gloss-galaxy-black/,"['https://partners-ltd.com/wp-content/uploads/2020/09/3M-2080-GP292-Gloss-Galaxy-Black-200x200.jpg', 'https://partners-ltd.com/wp-content/uploads/2020/09/3M-2080-GP292-Gloss-Galaxy-Black_1-200x200.jpg', 'https://partners-ltd.com/wp-content/uploads/2020/09/3M-2080-GP292-Gloss-Galaxy-Black_3-200x200.jpg', 'https://partners-ltd.com/wp-content/uploads/2020/09/3M-2080-GP292-Gloss-Galaxy-Black_2-200x200.jpg']"
3M Car Wrap Film 1080 – gloss metallic films,"\nHigh quality car wrap films, that guarantee high reliability of the installations even in the most unprotected parts of the vehicle, such as the front hood and the bumpers.\n",https://partners-ltd.com/wp-content/uploads/2018/08/3M_Car_Wrap_films_1080_gloss_metallic-200x200.jpg,https://partners-ltd.com/en/shop/3m-car-wrap-films/metalic/3m-1080-gloss-metallic/,['https://partners-ltd.com/wp-content/uploads/2018/08/3M_Car_Wrap_films_1080_gloss_metallic-200x200.jpg']
3M Car Wrap Film 1080 - gloss glitter metallic films,"\nHigh quality car wrap films with glitter metallic effect, that guarantees high reliability of the installations even in the most unprotected parts of the vehicle, such as the front hood and the bumpers.\n",https://partners-ltd.com/wp-content/uploads/2018/08/3M_Car_Wrap_films_1080_gloss_glitter_metallic-200x200.jpg,https://partners-ltd.com/en/shop/3m-car-wrap-films/metalic/3m-wrap-film-1080-gloss-glitter/,['https://partners-ltd.com/wp-content/uploads/2018/08/3M_Car_Wrap_films_1080_gloss_glitter_metallic-200x200.jpg']
3M 2080 Car Wrap Series SP242 Gold Dust Black,"\n3M 2080 Car Wrap Series Introducing this delightful black color with golden glitter. The added satin effect completes the overall luxurious look of the car wrap. Enjoy the quality, amazing vision, and everything else the 2080 series offers you.\n",https://partners-ltd.com/wp-content/uploads/2020/12/3M-2080-SP242-200x200.jpg,https://partners-ltd.com/en/shop/3m-car-wrap-films/satin/3m-2080-car-wrap-series-sp242-gold-dust-black/,"['https://partners-ltd.com/wp-content/uploads/2020/12/3M-2080-SP242-200x200.jpg', 'https://partners-ltd.com/wp-content/uploads/2020/12/3M-2080-Car-Wrap-Series-SP242-черен-цвят-с-блясък-сатен-2-200x200.jpg', 'https://partners-ltd.com/wp-content/uploads/2020/12/3M-2080-Car-Wrap-Series-SP242-черен-цвят-с-блясък-сатен-1-200x200.jpg', 'https://partners-ltd.com/wp-content/uploads/2020/12/3M-2080-Car-Wrap-Series-SP242-черен-цвят-с-блясък-сатен-3-200x200.jpg']"
3M 2080 Car Wrap Series M271 Satin Thundercloud,"\nAmazingly different from anything seen on the market, this color will turn your car into a landmark. The satin effect adds even more luxurious feeling. Take advantage of all the 3M 2080 Car Wrap series unlimited possibilities.\n",https://partners-ltd.com/wp-content/uploads/2020/11/3M-2080-S271-200x200.jpg,https://partners-ltd.com/en/shop/3m-car-wrap-films/satin/3m-2080-car-wrap-series-m271-satin-thundercloud/,"['https://partners-ltd.com/wp-content/uploads/2020/11/3M-2080-S271-200x200.jpg', 'https://partners-ltd.com/wp-content/uploads/2020/11/3M-2080-Car-Wrap-Series-M271-преливащо-сив-сатен-2-200x200.jpg', 'https://partners-ltd.com/wp-content/uploads/2020/11/3M-2080-Car-Wrap-Series-M271-преливащо-сив-сатен-200x200.jpg', 'https://partners-ltd.com/wp-content/uploads/2020/11/3M-2080-Car-Wrap-Series-M271-сив-сатен-200x200.jpg']"
3M 2080 Car Wrap Series S10 Satin White,"\nAiry and attractive, this white color with a satin effect will change your mind about car wrap. Let the 3M 2080 Car Wrap Series show you how quickly and easily you can breathe new life and a different look to your car. Do not stop experimenting, the 3M 2080 rich color palette would satisfy even the most demanding tastes!\n",https://partners-ltd.com/wp-content/uploads/2020/11/3M-2080-S10-200x200.jpg,https://partners-ltd.com/en/shop/3m-car-wrap-films/satin/3m-2080-car-wrap-series-s10-satin-white/,"['https://partners-ltd.com/wp-content/uploads/2020/11/3M-2080-S10-200x200.jpg', 'https://partners-ltd.com/wp-content/uploads/2020/11/3M-2080-Car-Wrap-Series-S10-бял-цвят-сатен-200x200.jpg', 'https://partners-ltd.com/wp-content/uploads/2020/11/3M-2080-Car-Wrap-Series-S10-бял-200x200.jpg', 'https://partners-ltd.com/wp-content/uploads/2020/11/3M-2080-Car-Wrap-Series-S10-бял-сатен-200x200.jpg']"
3M 2080 Car Wrap Series S261 Satin Dark Grey,"\nThe 3M 2080 Car Wrap Series in dark grey color gives you the incredible opportunity to change your car look. Elegant, fine, and with a unique satin effect, this color will help you catch everyone&#8217;s attention.\n",https://partners-ltd.com/wp-content/uploads/2020/11/3M-2080-S261-200x200.jpg,https://partners-ltd.com/en/shop/3m-car-wrap-films/satin/3m-2080-car-wrap-series-s261-satin-dark-grey/,"['https://partners-ltd.com/wp-content/uploads/2020/11/3M-2080-S261-200x200.jpg', 'https://partners-ltd.com/wp-content/uploads/2020/11/3M-2080-Car-Wrap-Series-S261-тъмносиво-сатен-.jpg-200x200.jpg', 'https://partners-ltd.com/wp-content/uploads/2020/11/3M-2080-Car-Wrap-Series-S261-тъмносив-сатен-.jpg-200x200.jpg', 'https://partners-ltd.com/wp-content/uploads/2020/11/3M-2080-Car-Wrap-Series-S261-сатен-тъмносив-200x200.jpg']"
3M 2080 Car Wrap Series S51 Satin Battleship Grey,"\nStylish color that arouses curiosity. &#8220;Battlefield grey&#8221; would fit perfectly on any car. Don&#8217;t stop experimenting. With the 3M 2080 Car Wrap Series huge palette, you have unlimited options for wrapping your car. Do the tuning you always wanted.\n",https://partners-ltd.com/wp-content/uploads/2020/11/3M-2080-S51-200x200.jpg,https://partners-ltd.com/en/shop/3m-car-wrap-films/satin/3m-2080-car-wrap-series-s51-satin-battleship-grey/,"['https://partners-ltd.com/wp-content/uploads/2020/11/3M-2080-S51-200x200.jpg', 'https://partners-ltd.com/wp-content/uploads/2020/11/3M-2080-Car-Wrap-Series-S51-сив-сатен-200x200.jpg', 'https://partners-ltd.com/wp-content/uploads/2020/11/3M-2080-Car-Wrap-Series-S51-сатен-сив-200x200.jpg', 'https://partners-ltd.com/wp-content/uploads/2020/11/3M-2080-Car-Wrap-Series-S51-сив-сатен-1-200x200.jpg']"
3M 2080 Car Wrap Series S57 Satin Key West,\nThe 3M 2080 Car Wrap Series offers you the irresistible opportunity to turn your car into a real gem. This turquoise car wrap color won&#8217;t ever bore you. The satin effect is a luxury addition to the already created incredible car look.\n,https://partners-ltd.com/wp-content/uploads/2020/11/3M-2080-S57-200x200.jpg,https://partners-ltd.com/en/shop/3m-car-wrap-films/satin/3m-2080-car-wrap-series-s57-satin-key-west/,"['https://partners-ltd.com/wp-content/uploads/2020/11/3M-2080-S57-200x200.jpg', 'https://partners-ltd.com/wp-content/uploads/2020/11/3M-2080-Car-Wrap-Series-S57-сатенен-тюркоазен-цвят-200x200.jpg', 'https://partners-ltd.com/wp-content/uploads/2020/11/3M-2080-Car-Wrap-Series-S57-тюркоазен-цвят-сатен-200x200.jpg', 'https://partners-ltd.com/wp-content/uploads/2020/11/3M-2080-Car-Wrap-Series-S57-тюркоаз-сатен-200x200.jpg']"
3M 2080 Wrap Film Series SP236 - Volcanic Flare,"\nThis color wrap will make your road experience extraordinary. Besides that, everyone will talk about you. Also, be sure you will catch yourself staring at your car with admiration.<br />\n<strong>Prices and quantity discounts:</strong>\n",https://partners-ltd.com/wp-content/uploads/2020/09/3M-2080_Satin-Flip-Volcanic-Flare-200x200.jpg,https://partners-ltd.com/en/shop/3m-car-wrap-films/satin/3m-2080-wrap-film-series-sp236-volcanic-flare/,"['https://partners-ltd.com/wp-content/uploads/2020/09/3M-2080_Satin-Flip-Volcanic-Flare-200x200.jpg', 'https://partners-ltd.com/wp-content/uploads/2020/09/3M-2080-SP236-VOLCANIC-FLARE-satin_01-200x200.jpg', 'https://partners-ltd.com/wp-content/uploads/2020/09/3M-2080-SP236-VOLCANIC-FLARE-SATIN-200x200.jpg', 'https://partners-ltd.com/wp-content/uploads/2020/09/3M-2080-SP236-Volcanic-200x200.png', 'https://partners-ltd.com/wp-content/uploads/2020/09/3M-2080-SP236-VOLCANIC-FLARE-satin-200x200.jpg']"
3M 2080 Wrap Film Series SP281 - Psychedelic,\n3M 2080 allows anyone who likes unforgettable experiences to create their own automobile oasis. The color would satisfy even your wildest expectations.\n<strong>Prices and quantity discounts:</strong>\n,https://partners-ltd.com/wp-content/uploads/2020/09/3M-2080_Satin-Flip-Psychedelic-200x200.jpg,https://partners-ltd.com/en/shop/3m-car-wrap-films/satin/3m-2080-wrap-film-series-sp281-psychedelic/,"['https://partners-ltd.com/wp-content/uploads/2020/09/3M-2080_Satin-Flip-Psychedelic-200x200.jpg', 'https://partners-ltd.com/wp-content/uploads/2020/09/2080-SP281-PSYCHEDELIC-Satin-200x200.jpg', 'https://partners-ltd.com/wp-content/uploads/2020/09/2080-SP281-Satin-PSYCHEDELIC-200x200.jpg', 'https://partners-ltd.com/wp-content/uploads/2020/09/2080-SP281-PSYCHEDELIC-200x200.jpg']"
"3M 2080 Wrap Film Series SP276 - Satin Flip, Caribbean Shimmer","\nFor sea color lovers, 3M made a self-adhesive car wrap film in an extraordinary blue tone.\xc2\xa0Bright, warm, and attractive, this color wins the hearts of people with its exoticism.\n<strong>Prices and quantity discounts:</strong>\n",https://partners-ltd.com/wp-content/uploads/2020/09/3M-2080_Satin-Flip-Caribbean-Shimmer-200x200.jpg,https://partners-ltd.com/en/shop/3m-car-wrap-films/satin/3m-2080-wrap-film-series-sp276-satin-flip-caribbean-shimmer/,"['https://partners-ltd.com/wp-content/uploads/2020/09/3M-2080_Satin-Flip-Caribbean-Shimmer-200x200.jpg', 'https://partners-ltd.com/wp-content/uploads/2020/09/3M-2080-Series-carbbiean-shimmer_3-1-200x200.jpg', 'https://partners-ltd.com/wp-content/uploads/2020/09/3M-2080-Series-carbbiean-shimmer_2-200x200.jpg', 'https://partners-ltd.com/wp-content/uploads/2020/09/3M-2080-Series-carbbiean-shimmer-200x200.jpg']"
3M 2080 Car Wrap Series M217 - Matte Slate blue metallic,"\nIrresistible blue metallic color with matte effect. Enchanting and memorable, this film is not accidentally on the cover of the 3M 2080 Car Wrap Series catalog. Give your car a new and attractive look now.\n",https://partners-ltd.com/wp-content/uploads/2020/11/3M-2080-M217-200x200.jpg,https://partners-ltd.com/en/shop/3m-car-wrap-films/matte-metallic/3m-2080-car-wrap-series-m217-slate-blue-metallic/,"['https://partners-ltd.com/wp-content/uploads/2020/11/3M-2080-M217-200x200.jpg', 'https://partners-ltd.com/wp-content/uploads/2020/11/3M-2080-Car-Wrap-Series-M217-Matte-Slate-Blue-Metallic-мат-металик-син-200x200.jpg', 'https://partners-ltd.com/wp-content/uploads/2020/11/3M-2080-Car-Wrap-Series-M217-Matte-Slate-Blue-Metallic-матов-металик-200x200.jpg', 'https://partners-ltd.com/wp-content/uploads/2020/11/3M-2080-Car-Wrap-Series-M217-Matte-Slate-Blue-Metallic-син-металик-мат-200x200.jpg']"
3M 2080 Wrap Film Series M211 Matte Charcoal Metallic,"\nThe passion for metallic colors will never be erased. Beautiful, stylish, and varying in many shades, they are a true symbol of the classic car look. Enjoy the rich palette of metallic colors of 3M.\n",https://partners-ltd.com/wp-content/uploads/2020/09/3M-2080-M211-Matte-Charcoal-Metallic_color-200x200.jpg,https://partners-ltd.com/en/shop/3m-car-wrap-films/matte-metallic/3m-2080-wrap-film-series-m211-matte-charcoal-metallic/,"['https://partners-ltd.com/wp-content/uploads/2020/09/3M-2080-M211-Matte-Charcoal-Metallic_color-200x200.jpg', 'https://partners-ltd.com/wp-content/uploads/2020/09/3M-2080-M211-Matte-Charcoal-Metallic-200x200.jpg', 'https://partners-ltd.com/wp-content/uploads/2020/09/3M-2080-M211-Matte-Charcoal-Metallic-back-200x200.jpg', 'https://partners-ltd.com/wp-content/uploads/2020/09/3M-2080-M211-Charcoal-Metallic-matte-200x200.jpg']"
3M 2080 Wrap Film Series M230 Matte Grey Aluminuim Metallic,"\nYes, that&#8217;s right &#8211; gray metallic with the aluminum effect and completely matte! This vinyl will cover the ordinary color of your car and you will never think\xc2\xa0again that gray is boring.\n<strong>Prices and quantity discounts:</strong>\n",https://partners-ltd.com/wp-content/uploads/2020/09/3M-2080-M230-Matte-Gray-Aluminium-200x200.jpg,https://partners-ltd.com/en/shop/3m-car-wrap-films/matte-metallic/3m-2080-wrap-film-series-m230-matte-grey-aluminuim-metallic/,"['https://partners-ltd.com/wp-content/uploads/2020/09/3M-2080-M230-Matte-Gray-Aluminium-200x200.jpg', 'https://partners-ltd.com/wp-content/uploads/2020/09/3M-2080-Wrap-Film-Series-M230-Gray-Aluminium-сив-металик-мат-цяло-облепяне-200x200.jpg', 'https://partners-ltd.com/wp-content/uploads/2020/09/3M-2080-Wrap-Film-Series-M230-Gray-Aluminium-сив-металик-мат-200x200.jpg', 'https://partners-ltd.com/wp-content/uploads/2020/09/3M-2080-Wrap-Film-Series-M230-Gray-Aluminium-сив-металик-мат-детайл-200x200.jpg']"
3M 2080 Wrap Film Series M212 Matte Black Metallic,"\nNot just color, but a sense of power.\xc2\xa0The classic matte black now with a metallic effect. There is a special charm in the black color, there is no denying it. This combination of effects would impress even the most demanding taste.\n<strong>Prices and quantity discounts:</strong>\n",https://partners-ltd.com/wp-content/uploads/2020/09/3M-2080-M212-Matte-Black-Metallic-200x200.jpg,https://partners-ltd.com/en/shop/3m-car-wrap-films/matte-metallic/3m-2080-wrap-film-series-m212-matte-black-metallic/,"['https://partners-ltd.com/wp-content/uploads/2020/09/3M-2080-M212-Matte-Black-Metallic-200x200.jpg', 'https://partners-ltd.com/wp-content/uploads/2020/09/3M-2080-Wrap-Film-Series-M212-Black-Metallic-черен-металик-мат-200x200.jpg', 'https://partners-ltd.com/wp-content/uploads/2020/09/3M-2080-Wrap-Film-Series-M212-Black-Metallic-черен-металик-200x200.jpg', 'https://partners-ltd.com/wp-content/uploads/2020/09/3M-2080-Wrap-Film-Series-M212-Black-Metallic-матов-черен-металик-мат-200x200.jpg']"
3M 2080 Wrap Film Series M209 Matte Brown Metallic,\nMatte metallic effect &#8211; what more is needed for a stylish and respectful look? The warm brown color looks unique both in the sun and in the garage. Sometimes the simple is more impressive. See for yourself.\n<strong>Prices and quantity discounts:</strong>\n,https://partners-ltd.com/wp-content/uploads/2020/09/3M-2080-M209-Matte-Brown-Metallic-1-200x200.jpg,https://partners-ltd.com/en/shop/3m-car-wrap-films/matte-metallic/3m-2080-wrap-film-series-m209-matte-brown-metallic/,"['https://partners-ltd.com/wp-content/uploads/2020/09/3M-2080-M209-Matte-Brown-Metallic-1-200x200.jpg', 'https://partners-ltd.com/wp-content/uploads/2020/09/3M-2080-M209-Matte-Brown-Metallic-200x200.jpg', 'https://partners-ltd.com/wp-content/uploads/2020/09/3M-2080-M209-Brown-Metallic-200x200.jpg', 'https://partners-ltd.com/wp-content/uploads/2020/09/3M-2080-M209-brown-metallic-mate-200x200.jpg']"
"3M 2080 Wrap Film Series M206 Pine Green Metallic, matte",\nWho would have guessed that green color could look so stylish and impressive? The 3M green matte metallic series allows you to transform your car by taking the attention of others.\n<strong>Prices and quantity discounts:</strong>\n,https://partners-ltd.com/wp-content/uploads/2020/09/3M-2080-M206-Matte-Pine-Green-Metallic-200x200.jpg,https://partners-ltd.com/en/shop/3m-car-wrap-films/matte-metallic/3m-2080-wrap-film-series-m206-pine-green-metallic-mate/,"['https://partners-ltd.com/wp-content/uploads/2020/09/3M-2080-M206-Matte-Pine-Green-Metallic-200x200.jpg', 'https://partners-ltd.com/wp-content/uploads/2020/09/3M-2080-M206-Pine-Green-Metallic-зелен-металик-мат-1-200x200.jpg', 'https://partners-ltd.com/wp-content/uploads/2020/09/3M-2080-M206-Pine-Green-Metallic-зелен-металик-мат-200x200.jpg', 'https://partners-ltd.com/wp-content/uploads/2020/09/3M-2080-M206-Pine-Green-Metallic-зелен-металик-200x200.jpg']"
3M 2080 Wrap Film Series BR212 - Brushed Black Metallic,\nA vinyl that is matte black with a brushed metal effect will surely turn you into an attraction on the road. All you have left is the pleasure of being the owner of the most impressive-looking car in the parking lot. Your name will become a synonym for style and luxury.<br />\n<strong>Prices and quantity discounts:</strong>\n,https://partners-ltd.com/wp-content/uploads/2020/08/3M-2080-BrushedBlackMetallic-200x200.jpg,https://partners-ltd.com/en/shop/3m-car-wrap-films/textures/3m-2080-wrap-film-series-br212-brushed-black-metallic/,"['https://partners-ltd.com/wp-content/uploads/2020/08/3M-2080-BrushedBlackMetallic-200x200.jpg', 'https://partners-ltd.com/wp-content/uploads/2020/08/3M-2080-Car-Wrap-Series-Brushed-Black-Metallic_2-200x200.jpg', 'https://partners-ltd.com/wp-content/uploads/2020/08/3M-2080-Car-Wrap-Series-Brushed-Black-Metallic-200x200.jpg', 'https://partners-ltd.com/wp-content/uploads/2020/08/3M-2080-Car-Wrap-Series-Brushed-Black-Metallic_5-200x200.jpg', 'https://partners-ltd.com/wp-content/uploads/2020/08/3M-2080-Car-Wrap-Series-Brushed-Black-Metallic_4-200x200.jpg', 'https://partners-ltd.com/wp-content/uploads/2020/08/3M-2080-Car-Wrap-Series-Brushed-Black-Metallic_3-200x200.jpg']"
3M 2080 Wrap Film Series BR201 Brushed Steel,"\n<strong>3M 2080 Wrap Film Series BR201 \xe2\x80\x93 Brushed Steel\xc2\xa0</strong>looks like a real steel. Your car will look more massive and expensive, and the metallic shine will become your trademark. Recommended for those drivers who take care of their vehicle and know that the automobile can create a successful reputation.<br />\n<strong>Prices and quantity discounts:</strong>\n",https://partners-ltd.com/wp-content/uploads/2020/08/3M-2080-BrushedSteel-200x200.jpg,https://partners-ltd.com/en/shop/3m-car-wrap-films/textures/3m-wrap-film-series-2080-br201-brushed-steel/,"['https://partners-ltd.com/wp-content/uploads/2020/08/3M-2080-BrushedSteel-200x200.jpg', 'https://partners-ltd.com/wp-content/uploads/2020/08/3M-2080-Car-Wrap-Series-Brushed-Steel-200x200.jpg', 'https://partners-ltd.com/wp-content/uploads/2020/08/3M-2080-Car-Wrap-Series-Brushed-Steel-3-200x200.jpg', 'https://partners-ltd.com/wp-content/uploads/2020/08/3M-2080-Car-Wrap-Series-Brushed-Steel_2-200x200.jpg']"
3M 2080 Wrap Film Series BR230 - Brushed Titanium,"\nShininess that never stops reminding others of you.\xc2\xa0<strong>3M 2080 Car Wrap Films &#8211; Brushed Titanium</strong> will satisfy your wildest dreams. If you want your name to be associated with impressive style and classy vision, it is good to take care of the appearance of your car. This is a popular way to create a reputation without much effort.\n<strong>Prices and quantity discounts:</strong>\n",https://partners-ltd.com/wp-content/uploads/2020/08/3M-2080-BrushedTitanium-200x200.jpg,https://partners-ltd.com/en/shop/3m-car-wrap-films/textures/3m-2080-wrap-film-series-br230-brushed-titanium/,"['https://partners-ltd.com/wp-content/uploads/2020/08/3M-2080-BrushedTitanium-200x200.jpg', 'https://partners-ltd.com/wp-content/uploads/2020/08/3M-2080-Car-Wrap-Series-Brushed-Titanium-200x200.jpg', 'https://partners-ltd.com/wp-content/uploads/2020/08/3M-2080-Car-Wrap-Series-Brushed-Titanium_2-200x200.jpg', 'https://partners-ltd.com/wp-content/uploads/2020/08/3M-2080-Car-Wrap-Series-Brushed-Titanium_3-200x200.jpg']"
3M Wrap Film Series 2080 MX12 - Black Matrix,"\n&#8220;Black Matrix&#8221; is a black textured vinyl, made of small details in a hexagon shape. The product creates a depth effect and the illusion for car made of textiles. This vision will make you recognizable on the road.\xc2\xa0Designed with Comply\xe2\x84\xa2 and Controltac \xe2\x84\xa2 v3 adhesive systems for fast, easy and bubble-free installations on surfaces with complex 3D curves.<br />\n<strong>Prices and quantity discounts:</strong>\n",https://partners-ltd.com/wp-content/uploads/2020/08/3M-2080-Matrix-BLACK_425x450-copy-200x200.jpg,https://partners-ltd.com/en/shop/3m-car-wrap-films/textures/3m-wrap-film-series-2080-mx12-black-matrix/,"['https://partners-ltd.com/wp-content/uploads/2020/08/3M-2080-Matrix-BLACK_425x450-copy-200x200.jpg', 'https://partners-ltd.com/wp-content/uploads/2020/08/3M_2080_Black_Matrix-200x200.jpg', 'https://partners-ltd.com/wp-content/uploads/2020/08/3M-Wrap-Series-2080-Matrix-Black-200x200.jpg', 'https://partners-ltd.com/wp-content/uploads/2020/08/3M-Wrap-Series-2080-Matrix-Black_1-200x200.jpg', 'https://partners-ltd.com/wp-content/uploads/2020/08/3M-Wrap-Series-2080-Matrix-Black_2-200x200.jpg', 'https://partners-ltd.com/wp-content/uploads/2020/08/3M_2080_Black_Matrix-черна-матрица-200x200.jpg']"
"3M 2080 Wrap Film Series GP278 - Deep Space, Gloss","\nThe deep space flip color will inspire you every time you look at your car, enjoying several colors at the same time. The diversity would satisfy any tuning enthusiast.\n<strong>Prices and quantity discounts:</strong>\n",https://partners-ltd.com/wp-content/uploads/2020/09/3M-2080_Gloss-Flip-Deep-Space-200x200.jpg,https://partners-ltd.com/en/shop/3m-car-wrap-films/flip-colors/3m-2080-wrap-film-series-gp278-deep-space-gloss/,"['https://partners-ltd.com/wp-content/uploads/2020/09/3M-2080_Gloss-Flip-Deep-Space-200x200.jpg', 'https://partners-ltd.com/wp-content/uploads/2020/09/3M-2080-GP278-DEEP-SPACE-200x200.jpg', 'https://partners-ltd.com/wp-content/uploads/2020/09/3M-2080-GP278-DEEP-SPACE-Gloss-200x200.jpg', 'https://partners-ltd.com/wp-content/uploads/2020/09/3M-2080-Gloss-Flip-Deep-Space-200x200.jpg']"
"3M 2080 Wrap Film Series GP281 - Psychedelic, Gloss",\nThe most impressive chameleon effect on the market. Expect a feeling of luxury and go on unforgettable adventure on the road with the Psychedelic.\n<strong>Prices and quantity discounts:</strong>\n,https://partners-ltd.com/wp-content/uploads/2020/09/3M-2080_Gloss-Flip-Psychedelic_425x450-copy-200x200.jpg,https://partners-ltd.com/en/shop/3m-car-wrap-films/flip-colors/3m-2080-wrap-film-series-gp281-psychedelic/,"['https://partners-ltd.com/wp-content/uploads/2020/09/3M-2080_Gloss-Flip-Psychedelic_425x450-copy-200x200.jpg', 'https://partners-ltd.com/wp-content/uploads/2020/09/GP281-Gloss-Flip-Psychedelic-3-200x200.jpg', 'https://partners-ltd.com/wp-content/uploads/2019/05/BMW4-3M-1080-GP281_carwrap_06-200x200.jpg', 'https://partners-ltd.com/wp-content/uploads/2020/09/3M-2080-GP280-Gloss-Flip-Ghost-Pearl-хамелеон-фолио-за-тунинг-на-автомобили-200x200.jpg']"
"3M Wrap Film Series 2080 CFS201 Carbon Fiber, Anthracite","\n3M Wrap Film Series 2080 CF201 Carbon Fiber, Anthracite &#8211; for complete or partial car wrapping. Deep 3D texture will impress fans of carbon coatings with its precise workmanship. All of your interior and exterior ideas can be turned into reality.\n<strong>Prices and quantity discounts:</strong>\n",https://partners-ltd.com/wp-content/uploads/2020/08/3M-2080-Carbon-ANTRACITE_425x450-copy-200x200.jpg,https://partners-ltd.com/en/shop/3m-car-wrap-films/carbon/3m-wrap-cf201-film-series-2080-anthracite/,"['https://partners-ltd.com/wp-content/uploads/2020/08/3M-2080-Carbon-ANTRACITE_425x450-copy-200x200.jpg', 'https://partners-ltd.com/wp-content/uploads/2020/08/3m-carbon-200x200.jpg', 'https://partners-ltd.com/wp-content/uploads/2020/08/3m-carbon-mirror--200x200.jpg', 'https://partners-ltd.com/wp-content/uploads/2020/08/carbon_fiber_-1-200x200.jpg']"
Прозрачно защитно фолио за автомобили - 3M Scotchgard Paint Protection Film Pro series 4.0,"\nVirtually invisible paint protection film that protects car paint from stone chips, scratches, bug damage, road tar, stains, automotive fluid stains. Both for full and detail wrapping. Suitable for bumpers, side mirrors, handles, headlights, hood, door edges and more.\n",https://partners-ltd.com/wp-content/uploads/2019/08/Partners_3M-Scotchguard-Pro-v4-200x200.jpg,https://partners-ltd.com/en/shop/3m-car-wrap-films/paint-protection/3m-scotchgard-pro-4-clear-bra/,"['https://partners-ltd.com/wp-content/uploads/2019/08/Partners_3M-Scotchguard-Pro-v4-200x200.jpg', 'https://partners-ltd.com/wp-content/uploads/2019/08/3M-Scotchguard-Pro-series-PPF-200x200.jpg', 'https://partners-ltd.com/wp-content/uploads/2019/08/3M-Scotchguard-Pro-series-PPF-installation-200x200.jpg', 'https://partners-ltd.com/wp-content/uploads/2019/08/3M-Scotchguard-Pro-series-PPF-bumpers-200x200.jpg']"
